/* $FreeBSD: releng/11.2/usr.bin/indent/tests/label.0.stdout 313544 2017-02-10 09:31:39Z pstef $ */
/* See r303489 */
void 
t(void)
{
        switch (1) {
        case 1:                 /* test */
        case 2:                 /* test */
        }
CLEANUP:
        ;
V:      ;
U:      ;
}
