%!PS-Adobe-2.0 EPSF-2.0
%%Title: jail01.eps
%%Creator: fig2dev Version 3.2 Patchlevel 1
%%CreationDate: Fri Mar 24 20:37:59 2000
%%For: $FreeBSD: releng/11.2/share/doc/papers/jail/jail01.eps 61070 2000-05-29 18:18:07Z phk $
%%Orientation: Portrait
%%BoundingBox: 0 0 425 250
%%Pages: 0
%%BeginSetup
%%EndSetup
%%Magnification: 1.0000
%%EndComments
/$F2psDict 200 dict def
$F2psDict begin
$F2psDict /mtrx matrix put
/col-1 {0 setgray} bind def
/col0 {0.000 0.000 0.000 srgb} bind def
/col1 {0.000 0.000 1.000 srgb} bind def
/col2 {0.000 1.000 0.000 srgb} bind def
/col3 {0.000 1.000 1.000 srgb} bind def
/col4 {1.000 0.000 0.000 srgb} bind def
/col5 {1.000 0.000 1.000 srgb} bind def
/col6 {1.000 1.000 0.000 srgb} bind def
/col7 {1.000 1.000 1.000 srgb} bind def
/col8 {0.000 0.000 0.560 srgb} bind def
/col9 {0.000 0.000 0.690 srgb} bind def
/col10 {0.000 0.000 0.820 srgb} bind def
/col11 {0.530 0.810 1.000 srgb} bind def
/col12 {0.000 0.560 0.000 srgb} bind def
/col13 {0.000 0.690 0.000 srgb} bind def
/col14 {0.000 0.820 0.000 srgb} bind def
/col15 {0.000 0.560 0.560 srgb} bind def
/col16 {0.000 0.690 0.690 srgb} bind def
/col17 {0.000 0.820 0.820 srgb} bind def
/col18 {0.560 0.000 0.000 srgb} bind def
/col19 {0.690 0.000 0.000 srgb} bind def
/col20 {0.820 0.000 0.000 srgb} bind def
/col21 {0.560 0.000 0.560 srgb} bind def
/col22 {0.690 0.000 0.690 srgb} bind def
/col23 {0.820 0.000 0.820 srgb} bind def
/col24 {0.500 0.190 0.000 srgb} bind def
/col25 {0.630 0.250 0.000 srgb} bind def
/col26 {0.750 0.380 0.000 srgb} bind def
/col27 {1.000 0.500 0.500 srgb} bind def
/col28 {1.000 0.630 0.630 srgb} bind def
/col29 {1.000 0.750 0.750 srgb} bind def
/col30 {1.000 0.880 0.880 srgb} bind def
/col31 {1.000 0.840 0.000 srgb} bind def

end
save
-117.0 298.0 translate
1 -1 scale

/cp {closepath} bind def
/ef {eofill} bind def
/gr {grestore} bind def
/gs {gsave} bind def
/sa {save} bind def
/rs {restore} bind def
/l {lineto} bind def
/m {moveto} bind def
/rm {rmoveto} bind def
/n {newpath} bind def
/s {stroke} bind def
/sh {show} bind def
/slc {setlinecap} bind def
/slj {setlinejoin} bind def
/slw {setlinewidth} bind def
/srgb {setrgbcolor} bind def
/rot {rotate} bind def
/sc {scale} bind def
/sd {setdash} bind def
/ff {findfont} bind def
/sf {setfont} bind def
/scf {scalefont} bind def
/sw {stringwidth} bind def
/tr {translate} bind def
/tnt {dup dup currentrgbcolor
  4 -2 roll dup 1 exch sub 3 -1 roll mul add
  4 -2 roll dup 1 exch sub 3 -1 roll mul add
  4 -2 roll dup 1 exch sub 3 -1 roll mul add srgb}
  bind def
/shd {dup dup currentrgbcolor 4 -2 roll mul 4 -2 roll mul
  4 -2 roll mul srgb} bind def
/$F2psBegin {$F2psDict begin /$F2psEnteredState save def} def
/$F2psEnd {$F2psEnteredState restore end} def
%%EndProlog

$F2psBegin
10 setmiterlimit
n -1000 5962 m -1000 -1000 l 10022 -1000 l 10022 5962 l cp clip
 0.06000 0.06000 sc
/Courier-BoldOblique ff 180.00 scf sf
7725 3600 m
gs 1 -1 sc (10.0.0.2) dup sw pop neg 0 rm  col0 sh gr
% Polyline
15.000 slw
n 9000 3300 m 9000 4275 l gs col0 s gr 
% Polyline
2 slc
n 7875 3225 m 7800 3225 l gs col0 s gr 
% Polyline
0 slc
n 7875 4125 m 7800 4125 l gs col0 s gr 
% Polyline
n 7875 3225 m 7875 4425 l gs col0 s gr 
% Polyline
n 7875 3825 m 7800 3825 l gs col0 s gr 
% Polyline
n 7875 3525 m 7800 3525 l gs col0 s gr 
% Polyline
n 8175 3825 m 7875 3825 l gs col0 s gr 
% Polyline
2 slc
n 7875 4425 m 7800 4425 l gs col0 s gr 
/Courier-Bold ff 180.00 scf sf
8700 3900 m
gs 1 -1 sc (fxp0) dup sw pop neg 0 rm  col0 sh gr
% Polyline
0 slc
7.500 slw
n 2925 1425 m 3075 1425 l gs col0 s gr 
% Polyline
15.000 slw
n 2475 1350 m 2472 1347 l 2465 1342 l 2453 1334 l 2438 1323 l 2420 1311 l
 2401 1299 l 2383 1289 l 2366 1281 l 2351 1275 l 2338 1274 l
 2325 1275 l 2314 1279 l 2303 1285 l 2291 1293 l 2278 1303 l
 2264 1314 l 2250 1326 l 2236 1339 l 2222 1353 l 2209 1366 l
 2198 1379 l 2188 1391 l 2181 1403 l 2177 1414 l 2175 1425 l
 2177 1436 l 2181 1447 l 2188 1459 l 2198 1471 l 2209 1484 l
 2222 1497 l 2236 1511 l 2250 1524 l 2264 1536 l 2278 1547 l
 2291 1557 l 2303 1565 l 2314 1571 l 2325 1575 l 2338 1576 l
 2351 1575 l 2366 1569 l 2383 1561 l 2401 1551 l 2420 1539 l
 2438 1527 l 2453 1516 l 2465 1508 l 2472 1503 l 2475 1500 l gs col0 s gr 
/Courier-Bold ff 180.00 scf sf
2550 1500 m
gs 1 -1 sc (lo0) col0 sh gr
/Courier-BoldOblique ff 180.00 scf sf
3075 1500 m
gs 1 -1 sc (127.0.0.1) col0 sh gr
% Polyline
7.500 slw
n 2100 3525 m 2250 3525 l gs col0 s gr 
% Polyline
n 2550 2100 m 2250 2400 l 2250 4500 l 2550 4800 l gs col0 s gr 
/Courier-Bold ff 180.00 scf sf
1950 3600 m
gs 1 -1 sc (/) col0 sh gr
/Courier-Bold ff 180.00 scf sf
2550 3900 m
gs 1 -1 sc (jail_1/) col0 sh gr
/Courier-Bold ff 180.00 scf sf
2550 4200 m
gs 1 -1 sc (jail_2/) col0 sh gr
/Courier-Bold ff 180.00 scf sf
2550 4500 m
gs 1 -1 sc (jail_3/) col0 sh gr
/Courier-Bold ff 180.00 scf sf
2550 2400 m
gs 1 -1 sc (dev/) col0 sh gr
/Courier-Bold ff 180.00 scf sf
2550 2700 m
gs 1 -1 sc (etc/) col0 sh gr
/Courier-Bold ff 180.00 scf sf
2550 3000 m
gs 1 -1 sc (usr/) col0 sh gr
/Courier-Bold ff 180.00 scf sf
2550 3300 m
gs 1 -1 sc (var/) col0 sh gr
/Courier-Bold ff 180.00 scf sf
2550 3600 m
gs 1 -1 sc (home/) col0 sh gr
% Polyline
n 3375 3825 m 3900 3825 l 4950 1800 l 5100 1800 l gs col0 s gr 
% Polyline
n 3375 4125 m 3900 4125 l 4950 3900 l 5100 3900 l gs col0 s gr 
% Polyline
n 5400 900 m 5100 1200 l 5100 2400 l 5400 2700 l gs col0 s gr 
% Polyline
n 5400 3000 m 5100 3300 l 5100 4500 l 5400 4800 l gs col0 s gr 
% Polyline
n 4650 825 m 4650 2775 l 6675 2775 l 6675 3375 l 7950 3375 l 7950 825 l
 cp gs col0 s gr 
% Polyline
n 4650 2775 m 4650 4950 l 6300 4950 l 6300 3675 l 7950 3675 l 7950 3375 l
 6675 3375 l 6675 2775 l cp gs col0 s gr 
/Courier-Bold ff 180.00 scf sf
5400 1200 m
gs 1 -1 sc (dev/) col0 sh gr
/Courier-Bold ff 180.00 scf sf
5400 1500 m
gs 1 -1 sc (etc/) col0 sh gr
/Courier-Bold ff 180.00 scf sf
5400 1800 m
gs 1 -1 sc (usr/) col0 sh gr
/Courier-Bold ff 180.00 scf sf
5400 2100 m
gs 1 -1 sc (var/) col0 sh gr
/Courier-Bold ff 180.00 scf sf
5400 2400 m
gs 1 -1 sc (home/) col0 sh gr
/Courier-Bold ff 180.00 scf sf
5400 3300 m
gs 1 -1 sc (dev/) col0 sh gr
/Courier-Bold ff 180.00 scf sf
5400 3600 m
gs 1 -1 sc (etc/) col0 sh gr
/Courier-Bold ff 180.00 scf sf
5400 3900 m
gs 1 -1 sc (usr/) col0 sh gr
/Courier-Bold ff 180.00 scf sf
5400 4200 m
gs 1 -1 sc (var/) col0 sh gr
/Courier-Bold ff 180.00 scf sf
5400 4500 m
gs 1 -1 sc (home/) col0 sh gr
/Courier-BoldOblique ff 180.00 scf sf
7725 3300 m
gs 1 -1 sc (10.0.0.1) dup sw pop neg 0 rm  col0 sh gr
/Courier-BoldOblique ff 180.00 scf sf
7725 4500 m
gs 1 -1 sc (10.0.0.5) dup sw pop neg 0 rm  col0 sh gr
/Courier-BoldOblique ff 180.00 scf sf
7725 4200 m
gs 1 -1 sc (10.0.0.4) dup sw pop neg 0 rm  col0 sh gr
/Courier-BoldOblique ff 180.00 scf sf
7725 3900 m
gs 1 -1 sc (10.0.0.3) dup sw pop neg 0 rm  col0 sh gr
% Polyline
15.000 slw
n 9000 3825 m 8775 3825 l gs col0 s gr 
$F2psEnd
rs
