# $FreeBSD: releng/11.2/share/vt/fonts/vgarom-8x14.hex 267578 2014-06-17 13:12:30Z emaste $
# Height: 14
# Width: 8
0000:0000000000000000000000000000
0020:0000000000000000000000000000
0021:0000183C3C3C1818001818000000
0022:0066666624000000000000000000
0023:00006C6CFE6C6C6CFE6C6C000000
0024:18187CC6C2C07C0686C67C181800
0025:00000000C2C60C183066C6000000
0026:0000386C6C3876DCCCCC76000000
0027:0030303060000000000000000000
0028:00000C183030303030180C000000
0029:000030180C0C0C0C0C1830000000
002A:00000000663CFF3C660000000000
002B:0000000018187E18180000000000
002C:0000000000000000181818300000
002D:000000000000FE00000000000000
002E:0000000000000000001818000000
002F:000002060C183060C08000000000
0030:00007CC6CEDEF6E6C6C67C000000
0031:000018387818181818187E000000
0032:00007CC6060C183060C6FE000000
0033:00007CC606063C0606C67C000000
0034:00000C1C3C6CCCFE0C0C1E000000
0035:0000FEC0C0C0FC0606C67C000000
0036:00003860C0C0FCC6C6C67C000000
0037:0000FEC6060C1830303030000000
0038:00007CC6C6C67CC6C6C67C000000
0039:00007CC6C6C67E06060C78000000
003A:0000001818000000181800000000
003B:0000001818000000181830000000
003C:0000060C18306030180C06000000
003D:00000000007E00007E0000000000
003E:00006030180C060C183060000000
003F:00007CC6C60C1818001818000000
0040:00007CC6C6DEDEDEDCC07C000000
0041:000010386CC6C6FEC6C6C6000000
0042:0000FC6666667C666666FC000000
0043:00003C66C2C0C0C0C2663C000000
0044:0000F86C66666666666CF8000000
0045:0000FE66626878686266FE000000
0046:0000FE66626878686060F0000000
0047:00003C66C2C0C0DEC6663A000000
0048:0000C6C6C6C6FEC6C6C6C6000000
0049:00003C181818181818183C000000
004A:00001E0C0C0C0C0CCCCC78000000
004B:0000E6666C6C786C6C66E6000000
004C:0000F060606060606266FE000000
004D:0000C6EEFEFED6C6C6C6C6000000
004E:0000C6E6F6FEDECEC6C6C6000000
004F:0000386CC6C6C6C6C66C38000000
0050:0000FC6666667C606060F0000000
0051:00007CC6C6C6C6D6DE7C0C0E0000
0052:0000FC6666667C6C6666E6000000
0053:00007CC6C660380CC6C67C000000
0054:00007E7E5A18181818183C000000
0055:0000C6C6C6C6C6C6C6C67C000000
0056:0000C6C6C6C6C6C66C3810000000
0057:0000C6C6C6C6D6D6FE7C6C000000
0058:0000C6C66C3838386CC6C6000000
0059:0000666666663C1818183C000000
005A:0000FEC68C183060C2C6FE000000
005B:00003C303030303030303C000000
005C:000080C0E070381C0E0602000000
005D:00003C0C0C0C0C0C0C0C3C000000
005E:10386CC600000000000000000000
005F:000000000000000000000000FF00
0060:3030180000000000000000000000
0061:0000000000780C7CCCCC76000000
0062:0000E06060786C6666667C000000
0063:00000000007CC6C0C0C67C000000
0064:00001C0C0C3C6CCCCCCC76000000
0065:00000000007CC6FEC0C67C000000
0066:0000386C6460F0606060F0000000
0067:000000000076CCCCCC7C0CCC7800
0068:0000E060606C76666666E6000000
0069:000018180038181818183C000000
006A:00000606000E0606060666663C00
006B:0000E06060666C786C66E6000000
006C:000038181818181818183C000000
006D:0000000000ECFED6D6D6C6000000
006E:0000000000DC6666666666000000
006F:00000000007CC6C6C6C67C000000
0070:0000000000DC6666667C6060F000
0071:000000000076CCCCCC7C0C0C1E00
0072:0000000000DC76666060F0000000
0073:00000000007CC6701CC67C000000
0074:0000103030FC303030361C000000
0075:0000000000CCCCCCCCCC76000000
0076:0000000000666666663C18000000
0077:0000000000C6C6D6D6FE6C000000
0078:0000000000C66C38386CC6000000
0079:0000000000C6C6C6C67E060CF800
007A:0000000000FECC183066FE000000
007B:00000E181818701818180E000000
007C:0000181818180018181818000000
007D:0000701818180E18181870000000
007E:000076DC00000000000000000000
00A0:0000000000000000000000000000
00A1:000018180018183C3C3C18000000
00A2:0018183C666060663C1818000000
00A3:00386C6460F0606060E6FC000000
00A4:000000423C6666663C4200000000
00A5:000066663C187E187E1818000000
00A6:0000181818180018181818000000
00A7:007CC660386CC6C66C380CC67C00
00A8:0063630000000000000000000000
00A9:0000003E415D51515D413E000000
00AA:003C6C6C3E007E00000000000000
00AB:00000000366CD86C360000000000
00AC:000000000000FE06060600000000
00AD:0000000000007F00000000000000
00AE:0000003E415D555955413E000000
00AF:007E000000000000000000000000
00B0:00386C6C38000000000000000000
00B1:00000018187E18180000FF000000
00B2:0070D83060C8F800000000000000
00B3:007C0C380C6C3800000000000000
00B4:00060C1800000000000000000000
00B5:00000000666666667C6060C00000
00B6:00007FDBDBDB7B1B1B1B1B000000
00B7:0000000000000018000000000000
00B8:000000000000000000000C0C061C
00B9:0030703030307800000000000000
00BA:00386C6C38007C00000000000000
00BB:00000000D86C366CD80000000000
00BC:00C0C0C6CCD83066CE9E3E060600
00BD:00C0C0C6CCD83060DC860C183E00
00BE:00F03063F66C183367CF1F030300
00BF:0000303000303060C6C67C000000
00C0:603018001C3663637F6363000000
00C1:03060C001C3663637F6363000000
00C2:081C36001C3663637F6363000000
00C3:3B6E00081C3663637F6363000000
00C4:00C6C610386CC6C6FEC6C6000000
00C5:386C3800386CC6C6FEC6C6000000
00C6:00003E6CCCCCFECCCCCCCE000000
00C7:00003C66C2C0C0C2663C0C067C00
00C8:603018007F33303E30337F000000
00C9:18306000FE66607C6066FE000000
00CA:081C36007F33303E30337F000000
00CB:006363007F33303E30337F000000
00CC:603018003C18181818183C000000
00CD:060C18003C18181818183C000000
00CE:183C66003C18181818183C000000
00CF:006666003C18181818183C000000
00D0:00003C3633337B3333363C000000
00D1:76DC00C6E6F6FEDECEC6C6000000
00D2:603018001C36636363361C000000
00D3:03060C001C36636363361C000000
00D4:081C36001C36636363361C000000
00D5:003B6E001C36636363361C000000
00D6:00C6C6386CC6C6C6C66C38000000
00D7:00000063361C081C366300000000
00D8:00031E36676F6B7B73363C600000
00D9:603018006363636363633E000000
00DA:03060C006363636363633E000000
00DB:081C36006363636363633E000000
00DC:00C6C600C6C6C6C6C6C67C000000
00DD:060C18006666663C18183C000000
00DE:0078303E33333E30303078000000
00DF:000000007CC6FCC6C6FCC0C04000
00E0:0060301800780C7CCCCC76000000
00E1:0018306000780C7CCCCC76000000
00E2:0010386C00780C7CCCCC76000000
00E3:00003B6E003C063E66663B000000
00E4:0000CCCC00780C7CCCCC76000000
00E5:00386C3800780C7CCCCC76000000
00E6:00000000CC76367ED8D86E000000
00E7:000000003C6660663C0C063C0000
00E8:00603018007CC6FEC0C67C000000
00E9:000C1830007CC6FEC0C67C000000
00EA:0010386C007CC6FEC0C67C000000
00EB:0000CCCC007CC6FEC0C67C000000
00EC:006030180038181818183C000000
00ED:000C18300038181818183C000000
00EE:00183C660038181818183C000000
00EF:000066660038181818183C000000
00F0:0000361C36063E6666663C000000
00F1:000076DC00DC6666666666000000
00F2:00603018007CC6C6C6C67C000000
00F3:00183060007CC6C6C6C67C000000
00F4:0010386C007CC6C6C6C67C000000
00F5:00003B6E003E636363633E000000
00F6:0000C6C6007CC6C6C6C67C000000
00F7:0000001818007E00181800000000
00F8:00000000033E676F7B733E600000
00F9:0060301800CCCCCCCCCC76000000
00FA:0018306000CCCCCCCCCC76000000
00FB:003078CC00CCCCCCCCCC76000000
00FC:0000CCCC00CCCCCCCCCC76000000
00FD:00060C1800636666663E06663C00
00FE:00000078303E333333333E307800
00FF:0000C6C600C6C6C6C67E060C7800
0100:7C00387CC6C6C6FEC6C6C6C60000
0101:0000007C00780C7CCCCCCC760000
0102:C67C0010386CC6FEC6C6C6000000
0103:0000C67C00780C7CCCCC76000000
0104:000010386CC6C6FEC6C6CE180E00
0105:0000000000780C7CCCCC76301C00
0106:0C18003C66C2C0C0C2663C000000
0107:000C1830007CC6C0C0C67C000000
010C:6C38003C66C2C0C0C2663C000000
010D:00006C38007CC6C0C0C67C000000
010E:6C3800F86C666666666CF8000000
010F:6C38001C0C0C3C6CCCCC76000000
0110:0000F86C6666F666666CF8000000
0111:00000C0C7E0C3C6CCCCC76000000
0112:7C00FE6660607C60606066FE0000
0113:0000007C007CC6C6FEC0C67C0000
0116:1818FE6660607C60606066FE0000
0117:00001818007CC6C6FEC0C67C0000
0118:0000FE66626878686266FE301C00
0119:00000000007CC6FEC0C67C301C00
011A:6C3800FE666278686266FE000000
011B:00006C38007CC6FEC0C67C000000
0122:00007CC6C6C0C0CEC6C6C67C0C78
0123:3C60380076CEC6C6C6CE7606FC00
0128:76DC003C181818181818183C0000
0129:000076DC003818181818183C0000
012A:7E003C18181818181818183C0000
012B:0000007C003818181818183C0000
012E:00003C18181818181818183C301E
012F:00001818003818181818183C301E
0136:0000C6C6CCD8F0F0D8CCC6C60C78
0137:0000E0606066666C786C66E60C78
0138:0000000000E66C78786C66E60000
0139:0000F66C606060606266FE000000
013A:0000E66C606060606060F0000000
013B:0000F06060606060606266FE0C78
013C:00003818181818181818183C18F0
013D:001BEE60606060606266FE000000
013E:001BEE60606060606060F0000000
0141:0000F0646C7870E0E266FE000000
0142:0000381A1E1C183878583C000000
0143:0C1800C6E6F6FEDECEC6C6000000
0144:000C183000DC6666666666000000
0145:0000C6C6E6E6F6DECECEC6C60C78
0146:0000000000DC6666666666660C78
0147:6C3800C6E6F6FEDECEC6C6000000
0148:00006C3800DC6666666666000000
014A:0000DCFEF6E6C6C6C6C6C6DC0000
014B:00000000DCFEF6E6C6C6061C0000
014C:7C007CC6C6C6C6C6C6C6C67C0000
014D:0000007C007CC6C6C6C6C67C0000
0150:366C007CC6C6C6C6C6C67C000000
0151:0000366C007CC6C6C6C67C000000
0152:001F366666676666361F00000000
0153:00000000366B6B6E683700000000
0154:0C1800FC66667C6C6666E6000000
0155:000C183000DC76666060F0000000
0156:0000FC6666667C786C6666E60C78
0157:0000000000DC7666606060F030E0
0158:6C3800FC66667C6C6666E6000000
0159:00006C3800DC76666060F0000000
015A:0C18007CC6C6701CC6C67C000000
015B:000C1830007CC6701CC67C000000
015E:00007CC6C660380CC6C67C187000
015F:00000000007CC6701CC67C187000
0160:6C38007CC6C6701CC6C67C000000
0161:00006C38007CC6701CC67C000000
0162:00007E7E5A18181818183C0C3800
0163:0000103030FC303030361C0C3800
0164:361C007E7E5A181818183C000000
0165:6C3800103030FC3030361C000000
0166:0000FFDB99181E3C7818183C0000
0167:0000303030FC303C78F0361C0000
0168:76DC00C6C6C6C6C6C6C6C67C0000
0169:000076DC00CCCCCCCCCCCC760000
016A:7C00C6C6C6C6C6C6C6C6C67C0000
016B:000000FC00CCCCCCCCCCCC760000
016E:386C38C6C6C6C6C6C6C67C000000
016F:00386C3800CCCCCCCCCC76000000
0170:366C00C6C6C6C6C6C6C67C000000
0171:00006CD800CCCCCCCCCC76000000
0172:0000C6C6C6C6C6C6C6C6C67C301C
0173:0000000000CCCCCCCCCCCC76301E
0178:6600666666663C18183C00000000
0179:0C1800FEC68C183062C6FE000000
017A:000C183000FECC183066FE000000
017B:181800FEC68C183062C6FE000000
017C:0000181800FECC183066FE000000
017D:6C3800FEC68C183062C6FE000000
017E:00006C3800FECC183066FE000000
0192:000E1B1818187E18181818D87000
02C7:006C380000000000000000000000
02D8:00C67C0000000000000000000000
02D9:0018180000000000000000000000
02DB:0000000000000000000030301C00
02DD:00366CD800000000000000000000
037A:0000000000000000000000000000
0384:060C180000000000000000000000
0385:060C18C300000000000000000000
0386:0000C090B86CC6C6FEC6C6C60000
0388:000000BFB130303E3031313F0000
0389:000000B3B333333F333333330000
038A:000000BC981818181818183C0000
038C:0000009EB33333333333331E0000
038E:000000B3B333331E0C0C0C1E0000
038F:0000009EB3212121213312330000
0390:000C0800660018181818180E0000
0391:00000010386CC6C6FEC6C6C60000
0392:000000FC6666667C666666FC0000
0393:0000FEC6C6C0C0C0C0C0C0000000
0394:00000010386CC6C6C6C6C6FE0000
0395:000000FE66626878686266FE0000
0396:000000FEC6860C183062C6FE0000
0397:000000C6C6C6C6FEC6C6C6C60000
0398:0000386CC6C6FEC6C66C38000000
0399:0000003C181818181818183C0000
039A:000000E666666C786C6666E60000
039B:00000010386CC6C6C6C6C6C60000
039C:000000C6EEFEFED6C6C6C6C60000
039D:000000C6E6F6FEDECEC6C6C60000
039E:000000FE8200007C000082FE0000
039F:0000007CC6C6C6C6C6C6C67C0000
03A0:000000FEC6C6C6C6C6C6C6C60000
03A1:000000FC6666667C606060F00000
03A3:0000FEC66030183060C6FE000000
03A4:0000007E7E5A18181818183C0000
03A5:000000666666663C1818183C0000
03A6:00007E183C6666663C187E000000
03A7:000000C6C66C7C387C6CC6C60000
03A8:00000018DBDBDBDB7E18183C0000
03A9:0000386CC6C6C66C6C6CEE000000
03AA:0000C31818181818181818180000
03AB:00C300666666663C1818183C0000
03AC:0000003810007BCECCCCCC7B0000
03AD:00003810007CC6C078C0C67C0000
03AE:000000381000DC66666666660606
03AF:00000038100018181818180E0000
03B0:000018C30000E7666666663C0000
03B1:000000000076DCD8D8DC76000000
03B2:0000007CC6C6C6FCC6C6C6FCC0C0
03B3:0000000000C3663C183C6642663C
03B4:00001E30180C3E6666663C000000
03B5:00001C3060607C6060301C000000
03B6:00FC0C183060C0C0C0C0780C0C78
03B7:000000000000DC66666666660606
03B8:0000003E6363637F6363633E0000
03B9:00000000000018181818180E0000
03BA:000000000000E66C786C66E60000
03BB:000000386C0C0C0C366666660000
03BC:00000000000066666666667F6060
03BD:00000000000082C6C66C6C380000
03BE:00FC60C0783060C0C0C07C06067C
03BF:0000000000007CC6C6C6C67C0000
03C0:00000000FE6C6C6C6C6C6C000000
03C1:0000000000003C666666667C6060
03C2:0000000000003E63C060380CC67C
03C3:00000000007ED8D8D8D870000000
03C4:0000000076DC1818181818000000
03C5:000000000000E7666666663C0000
03C6:000003067EDBDBF37E60C0000000
03C7:000000000000C66C38386CC60000
03C8:000000000000D6D6D6D6D67C1010
03C9:00000000000066C3C3DBFF660000
03CA:000000C3000018181818180E0000
03CB:000000C30000E7666666663C0000
03CC:0000003810007CC6C6C6C67C0000
03CD:000000381000E7666666663C0000
03CE:00000038100066C3C3DBFF660000
0401:6C6C00FEC6C0F0C0C0C6FE000000
0402:0000F86060607C6666666C000000
0403:1830007E60606060606060000000
0404:00007CC6C0C0F8C0C0C67C000000
0405:00007CC6C660380CC6C67C000000
0406:0018003C1818181818183C000000
0407:0066003C1818181818183C000000
0408:00001E0C0C0C0C0CCCCC78000000
0409:0000183878D8DEDBDBDBDE000000
040A:0000D8D8D8D8FEDBDBDBDE000000
040B:0000FC3030303C36363636000000
040C:183000CCD8F0F0D8CCCCCC000000
040E:281000C6C6C6C67E06C67C000000
040F:0000C6C6C6C6C6C6FE3838000000
0410:00003E66C6C6C6FEC6C6C6000000
0411:0000FEC0C0FCC6C6C6C6FC000000
0412:0000FCC6C6C6FCC6C6C6FC000000
0413:0000FEC6C0C0C0C0C0C0C0000000
0414:00003C6C6C6C6C6C6C6CFEC68200
0415:0000FEC6C0C0F0C0C0C6FE000000
0416:0000D6D6D6547CD6D6D6D6000000
0417:00007CC6061C0606C6C67C000000
0418:0000C6C6C6CEDEF6E6C6C6000000
0419:000CDAC6C6CEDEF6E6C6C6000000
041A:0000C6CCD8F0F0D8CCC6C6000000
041B:00001E3666C6C6C6C6C6C6000000
041C:000082C6C6EEEEFED6C6C6000000
041D:0000C6C6C6C6FEC6C6C6C6000000
041E:00007EC6C6C6C6C6C6C6FC000000
041F:0000FEC6C6C6C6C6C6C6C6000000
0420:0000FCC6C6C6C6FCC0C0C0000000
0421:00007CC6C6C0C0C0C6C67C000000
0422:00007E7E5A181818181818000000
0423:0000C6C6C6C6C67E06C67C000000
0424:00007CD6D6D6D6D67C1038000000
0425:0000C6C66C38386CC6C6C6000000
0426:0000CCCCCCCCCCCCCCCCFE020600
0427:0000C6C6C6C6C67E060606000000
0428:00D6D6D6D6D6D6D6D6D6FE000000
0429:00D6D6D6D6D6D6D6D6D6FE020600
042A:0000E0E0607C666666667C000000
042B:0000C6C6C6E6B6B6B6B6E6000000
042C:0000C0C0C0FCC6C6C6C6FC000000
042D:00007CC6061E0606C6C67C000000
042E:00009CB6B6B6F6B6B6B69C000000
042F:00007EC6C6C6C67E3666C6000000
0430:00000000007CC6C6FEC6C6000000
0431:0000000000FEC0FCC6C6FC000000
0432:0000000000FCC6FCC6C6FC000000
0433:0000000000FEC2C0C0C0C0000000
0434:00000000003C6C6C6C6CFEC68200
0435:00000000007CC6FCC0C67C000000
0436:0000000000D6D67CD6D6D6000000
0437:00000000007CC61C06C67C000000
0438:0000000000C6CEDEF6E6C6000000
0439:0000000C18C6CEDEF6E6C6000000
043A:0000000000C6CCF8D8CCC6000000
043B:00000000003E66666666C6000000
043C:0000000000C6EEFED6C6C6000000
043D:0000000000C6C6C6FEC6C6000000
043E:00000000007EC6C6C6C6FC000000
043F:0000000000FEC6C6C6C6C6000000
0440:0000000000FCC6C6C6C6FCC0C000
0441:00000000007CC6C0C0C67C000000
0442:00000000007E5A18181818000000
0443:0000000000C6C6C6C6C67E067C00
0444:00000000107CD6D6D6D67C103800
0445:0000000000C66C38386CC6000000
0446:0000000000CCCCCCCCCCFE060C00
0447:0000000000C6C6C67E0606000000
0448:0000000000D6D6D6D6D6FE000000
0449:0000000000D6D6D6D6D6FE020600
044A:0000000000E0607C66667C000000
044B:0000000000C6C6E6B6B6E6000000
044C:0000000000C0C0FCC6C6FC000000
044D:00000000007CC61E06C67C000000
044E:00000000009CB6B6F6B69C000000
044F:00000000007EC67E3666C6000000
0451:00006C6C007CC6FCC0C67C000000
0452:00006060F8607C666666660C0000
0453:00001830007C6060606060000000
0454:00000000007CC6F0C0C67C000000
0455:00000000007CC6701CC67C000000
0456:000010100038181818183C000000
0457:000028280038181818183C000000
0458:00000404000E0606060666663C00
0459:00000000003878DEDBDBDE000000
045A:0000000000D8D8FEDBDBDE000000
045B:00003030FC303C36363636000000
045C:0000183000CCD8F0D8CCCC000000
045E:0000281000C6C6C6C6C67E067C00
045F:0000000000C6C6C6FE3838000000
05D0:0000006363333B6E666363000000
05D1:0000007C0606060606067F000000
05D2:0000001C060606061E3663000000
05D3:0000007F06060606060606000000
05D4:0000007E03030363636363000000
05D5:000000380C0C0C0C0C0C0C000000
05D6:0000007E1818180C0C1830000000
05D7:0000007E33636363636363000000
05D8:000000666B6B636363663C000000
05D9:0000003C0606060C000000000000
05DA:0000007E03030606060606060700
05DB:0000007E0303030303067C000000
05DC:0060607E030303060C1818000000
05DD:0000007E6363636363637F000000
05DE:0000006E7B33636363636F000000
05DF:0000001C06060C0C0C0C0C0C0E00
05E0:0000001C0606060606063E000000
05E1:0000007E3363636363663C000000
05E2:00000033333333331B0E7C000000
05E3:0000007C26667606060606060700
05E4:0000007E2363730303037F000000
05E5:000000666666666C786060607000
05E6:0000006363331E0C06037F000000
05E7:0000007E03033336363730303000
05E8:0000007E03030303030303000000
05E9:0000006B6B6B6B6B7B633E000000
05EA:0000007E33333333333373000000
200E:0000000000000000000000000000
200F:0000000000000000000000000000
2015:00000000000000FF000000000000
2017:00000000000000000000FF00FF00
2018:0030606030000000000000000000
2019:000C06060C000000000000000000
2022:0000000000183C3C180000000000
203C:0000666666666666006666000000
207F:00D86C6C6C6C6C00000000000000
20A7:00F8CCCCF8C4CCDECCCCC6000000
20AC:0000000000000000000000000000
20AF:0000000000000000000000000000
2116:0000888ACDEAB8988B888B000000
2190:000000003060FE60300000000000
2191:0000183C7E181818181818000000
2192:00000000180CFE0C180000000000
2193:00001818181818187E3C18000000
2194:00000000286CFE6C280000000000
2195:0000183C7E1818187E3C18000000
21A8:0000183C7E1818187E3C187E0000
2219:0000000000001818000000000000
221A:000F0C0C0C0C0CEC6C3C1C000000
221E:00000000007EDBDB7E0000000000
221F:0000000000C0C0C0FE0000000000
2229:0000007CC6C6C6C6C6C6C6000000
2248:0000000076DC0076DC0000000000
2261:000000FE0000FE0000FE00000000
2264:00000C18306030180C007E000000
2265:000030180C060C1830007E000000
2302:0000000010386CC6C6FE00000000
2310:000000000000FEC0C0C000000000
2320:00000E1B1B181818181818181818
2321:1818181818181818D8D870000000
2500:00000000000000FF000000000000
2502:1818181818181818181818181818
250C:000000000000001F181818181818
2510:00000000000000F8181818181818
2514:181818181818181F000000000000
2518:18181818181818F8000000000000
251C:181818181818181F181818181818
2524:18181818181818F8181818181818
252C:00000000000000FF181818181818
2534:18181818181818FF000000000000
253C:18181818181818FF181818181818
2550:0000000000FF00FF000000000000
2551:3636363636363636363636363636
2552:00000000001F181F181818181818
2553:000000000000003F363636363636
2554:00000000003F3037363636363636
2555:0000000000F818F8181818181818
2556:00000000000000FE363636363636
2557:0000000000FE06F6363636363636
2558:18181818181F181F000000000000
2559:363636363636363F000000000000
255A:363636363637303F000000000000
255B:1818181818F818F8000000000000
255C:36363636363636FE000000000000
255D:3636363636F606FE000000000000
255E:18181818181F181F181818181818
255F:3636363636363637363636363636
2560:3636363636373037363636363636
2561:1818181818F818F8181818181818
2562:36363636363636F6363636363636
2563:3636363636F606F6363636363636
2564:0000000000FF00FF181818181818
2565:00000000000000FF363636363636
2566:0000000000FF00F7363636363636
2567:1818181818FF00FF000000000000
2568:36363636363636FF000000000000
2569:3636363636F700FF000000000000
256A:1818181818FF18FF181818181818
256B:36363636363636FF363636363636
256C:3636363636F700F7363636363636
2580:FFFFFFFFFFFFFF00000000000000
2584:00000000000000FFFFFFFFFFFFFF
2588:FFFFFFFFFFFFFFFFFFFFFFFFFFFF
258C:F0F0F0F0F0F0F0F0F0F0F0F0F0F0
2590:0F0F0F0F0F0F0F0F0F0F0F0F0F0F
2591:1144114411441144114411441144
2592:55AA55AA55AA55AA55AA55AA55AA
2593:DD77DD77DD77DD77DD77DD77DD77
25A0:000000007C7C7C7C7C7C00000000
25AC:0000000000000000FEFEFE000000
25B2:0000001038387C7CFEFE00000000
25BA:000080C0E0F8FEF8E0C080000000
25BC:000000FEFE7C7C38381000000000
25C4:000002060E3EFE3E0E0602000000
25CB:000000003C664242663C00000000
25D8:FFFFFFFFFFE7C3C3E7FFFFFFFFFF
25D9:FFFFFFFFC399BDBD99C3FFFFFFFF
263A:00007E81A58181BD99817E000000
263B:00007EFFDBFFFFC3E7FF7E000000
263C:00001818DB3CE73CDB1818000000
2640:00003C6666663C187E1818000000
2642:00001E0E1A3278CCCCCC78000000
2660:0000183C7EFFFF7E18183C000000
2663:0000183C3CE7E7E718183C000000
2665:0000006CFEFEFEFE7C3810000000
2666:00000010387CFE7C381000000000
266A:00003F333F30303070F0E0000000
266C:00007F637F63636367E7E6C00000
