%!PS-Adobe-2.0 EPSF-2.0
%%Title: fig1.eps
%%Creator: fig2dev Version 3.2 Patchlevel 3d
%%CreationDate: $FreeBSD: releng/11.2/share/doc/papers/timecounter/fig1.eps 116411 2003-06-15 18:49:46Z phk $
%%For: phk@critter.freebsd.dk (Poul-Henning Kamp)
%%BoundingBox: 0 0 191 194
%%Magnification: 1.0000
%%EndComments
/$F2psDict 200 dict def
$F2psDict begin
$F2psDict /mtrx matrix put
/col-1 {0 setgray} bind def
/col0 {0.000 0.000 0.000 srgb} bind def
/col1 {0.000 0.000 1.000 srgb} bind def
/col2 {0.000 1.000 0.000 srgb} bind def
/col3 {0.000 1.000 1.000 srgb} bind def
/col4 {1.000 0.000 0.000 srgb} bind def
/col5 {1.000 0.000 1.000 srgb} bind def
/col6 {1.000 1.000 0.000 srgb} bind def
/col7 {1.000 1.000 1.000 srgb} bind def
/col8 {0.000 0.000 0.560 srgb} bind def
/col9 {0.000 0.000 0.690 srgb} bind def
/col10 {0.000 0.000 0.820 srgb} bind def
/col11 {0.530 0.810 1.000 srgb} bind def
/col12 {0.000 0.560 0.000 srgb} bind def
/col13 {0.000 0.690 0.000 srgb} bind def
/col14 {0.000 0.820 0.000 srgb} bind def
/col15 {0.000 0.560 0.560 srgb} bind def
/col16 {0.000 0.690 0.690 srgb} bind def
/col17 {0.000 0.820 0.820 srgb} bind def
/col18 {0.560 0.000 0.000 srgb} bind def
/col19 {0.690 0.000 0.000 srgb} bind def
/col20 {0.820 0.000 0.000 srgb} bind def
/col21 {0.560 0.000 0.560 srgb} bind def
/col22 {0.690 0.000 0.690 srgb} bind def
/col23 {0.820 0.000 0.820 srgb} bind def
/col24 {0.500 0.190 0.000 srgb} bind def
/col25 {0.630 0.250 0.000 srgb} bind def
/col26 {0.750 0.380 0.000 srgb} bind def
/col27 {1.000 0.500 0.500 srgb} bind def
/col28 {1.000 0.630 0.630 srgb} bind def
/col29 {1.000 0.750 0.750 srgb} bind def
/col30 {1.000 0.880 0.880 srgb} bind def
/col31 {1.000 0.840 0.000 srgb} bind def

end
save
newpath 0 194 moveto 0 0 lineto 191 0 lineto 191 194 lineto closepath clip newpath
-7.6 201.2 translate
1 -1 scale

/cp {closepath} bind def
/ef {eofill} bind def
/gr {grestore} bind def
/gs {gsave} bind def
/sa {save} bind def
/rs {restore} bind def
/l {lineto} bind def
/m {moveto} bind def
/rm {rmoveto} bind def
/n {newpath} bind def
/s {stroke} bind def
/sh {show} bind def
/slc {setlinecap} bind def
/slj {setlinejoin} bind def
/slw {setlinewidth} bind def
/srgb {setrgbcolor} bind def
/rot {rotate} bind def
/sc {scale} bind def
/sd {setdash} bind def
/ff {findfont} bind def
/sf {setfont} bind def
/scf {scalefont} bind def
/sw {stringwidth} bind def
/tr {translate} bind def
/tnt {dup dup currentrgbcolor
  4 -2 roll dup 1 exch sub 3 -1 roll mul add
  4 -2 roll dup 1 exch sub 3 -1 roll mul add
  4 -2 roll dup 1 exch sub 3 -1 roll mul add srgb}
  bind def
/shd {dup dup currentrgbcolor 4 -2 roll mul 4 -2 roll mul
  4 -2 roll mul srgb} bind def
 /DrawEllipse {
	/endangle exch def
	/startangle exch def
	/yrad exch def
	/xrad exch def
	/y exch def
	/x exch def
	/savematrix mtrx currentmatrix def
	x y tr xrad yrad sc 0 0 1 startangle endangle arc
	closepath
	savematrix setmatrix
	} def

/$F2psBegin {$F2psDict begin /$F2psEnteredState save def} def
/$F2psEnd {$F2psEnteredState restore end} def

$F2psBegin
10 setmiterlimit
 0.06000 0.06000 sc
%
% Fig objects follow
%
/Times-Roman ff 180.00 scf sf
750 3300 m
gs 1 -1 sc (Imprecise) dup sw pop 2 div neg 0 rm  col0 sh gr
15.000 slw
% Ellipse
n 750 750 300 300 0 360 DrawEllipse gs col0 s gr

% Ellipse
n 750 750 450 450 0 360 DrawEllipse gs col0 s gr

% Ellipse
n 750 750 600 600 0 360 DrawEllipse gs col0 s gr

% Ellipse
n 750 2250 150 150 0 360 DrawEllipse gs col0 s gr

% Ellipse
n 750 2250 300 300 0 360 DrawEllipse gs col0 s gr

% Ellipse
n 750 2250 450 450 0 360 DrawEllipse gs col0 s gr

% Ellipse
n 750 2250 600 600 0 360 DrawEllipse gs col0 s gr

% Ellipse
n 2250 2250 150 150 0 360 DrawEllipse gs col0 s gr

% Ellipse
n 2250 2250 300 300 0 360 DrawEllipse gs col0 s gr

% Ellipse
n 2250 2250 450 450 0 360 DrawEllipse gs col0 s gr

% Ellipse
n 2250 2250 600 600 0 360 DrawEllipse gs col0 s gr

% Ellipse
n 2250 750 150 150 0 360 DrawEllipse gs col0 s gr

% Ellipse
n 2250 750 300 300 0 360 DrawEllipse gs col0 s gr

% Ellipse
n 2250 750 450 450 0 360 DrawEllipse gs col0 s gr

% Ellipse
n 2250 750 600 600 0 360 DrawEllipse gs col0 s gr

% Ellipse
n 2280 2197 38 38 0 360 DrawEllipse gs 0.00 setgray ef gr gs col0 s gr

% Ellipse
n 2152 2212 38 38 0 360 DrawEllipse gs 0.00 setgray ef gr gs col0 s gr

% Ellipse
n 2145 2332 38 38 0 360 DrawEllipse gs 0.00 setgray ef gr gs col0 s gr

% Ellipse
n 2265 2325 38 38 0 360 DrawEllipse gs 0.00 setgray ef gr gs col0 s gr

% Ellipse
n 2370 2295 38 38 0 360 DrawEllipse gs 0.00 setgray ef gr gs col0 s gr

% Ellipse
n 292 2002 38 38 0 360 DrawEllipse gs 0.00 setgray ef gr gs col0 s gr

% Ellipse
n 367 1905 38 38 0 360 DrawEllipse gs 0.00 setgray ef gr gs col0 s gr

% Ellipse
n 390 2040 38 38 0 360 DrawEllipse gs 0.00 setgray ef gr gs col0 s gr

% Ellipse
n 180 1950 38 38 0 360 DrawEllipse gs 0.00 setgray ef gr gs col0 s gr

% Ellipse
n 1965 472 38 38 0 360 DrawEllipse gs 0.00 setgray ef gr gs col0 s gr

% Ellipse
n 2355 517 38 38 0 360 DrawEllipse gs 0.00 setgray ef gr gs col0 s gr

% Ellipse
n 2505 870 38 38 0 360 DrawEllipse gs 0.00 setgray ef gr gs col0 s gr

% Ellipse
n 907 1170 38 38 0 360 DrawEllipse gs 0.00 setgray ef gr gs col0 s gr

% Ellipse
n 1282 1305 38 38 0 360 DrawEllipse gs 0.00 setgray ef gr gs col0 s gr

% Ellipse
n 975 825 38 38 0 360 DrawEllipse gs 0.00 setgray ef gr gs col0 s gr

% Ellipse
n 2071 1074 38 38 0 360 DrawEllipse gs 0.00 setgray ef gr gs col0 s gr

% Ellipse
n 2550 600 38 38 0 360 DrawEllipse gs 0.00 setgray ef gr gs col0 s gr

% Ellipse
n 1350 675 38 38 0 360 DrawEllipse gs 0.00 setgray ef gr gs col0 s gr

% Ellipse
n 1350 1050 38 38 0 360 DrawEllipse gs 0.00 setgray ef gr gs col0 s gr

% Ellipse
n 225 2100 38 38 0 360 DrawEllipse gs 0.00 setgray ef gr gs col0 s gr

/Times-Roman ff 180.00 scf sf
3300 750 m
gs 1 -1 sc  90.0 rot (Unstable) dup sw pop 2 div neg 0 rm  col0 sh gr
/Times-Roman ff 180.00 scf sf
3300 2250 m
gs 1 -1 sc  90.0 rot (Stable) dup sw pop 2 div neg 0 rm  col0 sh gr
/Times-Roman ff 180.00 scf sf
2250 3300 m
gs 1 -1 sc (Precise) dup sw pop 2 div neg 0 rm  col0 sh gr
% Ellipse
n 750 750 150 150 0 360 DrawEllipse gs col0 s gr

$F2psEnd
rs
