%!PS-Adobe-2.0 EPSF-2.0
%%Title: fig2.eps
%%Creator: fig2dev Version 3.2 Patchlevel 3d
%%CreationDate: $FreeBSD: releng/11.2/share/doc/papers/timecounter/fig2.eps 116411 2003-06-15 18:49:46Z phk $
%%For: phk@critter.freebsd.dk (Poul-Henning Kamp)
%%BoundingBox: 0 0 191 194
%%Magnification: 1.0000
%%EndComments
/$F2psDict 200 dict def
$F2psDict begin
$F2psDict /mtrx matrix put
/col-1 {0 setgray} bind def
/col0 {0.000 0.000 0.000 srgb} bind def
/col1 {0.000 0.000 1.000 srgb} bind def
/col2 {0.000 1.000 0.000 srgb} bind def
/col3 {0.000 1.000 1.000 srgb} bind def
/col4 {1.000 0.000 0.000 srgb} bind def
/col5 {1.000 0.000 1.000 srgb} bind def
/col6 {1.000 1.000 0.000 srgb} bind def
/col7 {1.000 1.000 1.000 srgb} bind def
/col8 {0.000 0.000 0.560 srgb} bind def
/col9 {0.000 0.000 0.690 srgb} bind def
/col10 {0.000 0.000 0.820 srgb} bind def
/col11 {0.530 0.810 1.000 srgb} bind def
/col12 {0.000 0.560 0.000 srgb} bind def
/col13 {0.000 0.690 0.000 srgb} bind def
/col14 {0.000 0.820 0.000 srgb} bind def
/col15 {0.000 0.560 0.560 srgb} bind def
/col16 {0.000 0.690 0.690 srgb} bind def
/col17 {0.000 0.820 0.820 srgb} bind def
/col18 {0.560 0.000 0.000 srgb} bind def
/col19 {0.690 0.000 0.000 srgb} bind def
/col20 {0.820 0.000 0.000 srgb} bind def
/col21 {0.560 0.000 0.560 srgb} bind def
/col22 {0.690 0.000 0.690 srgb} bind def
/col23 {0.820 0.000 0.820 srgb} bind def
/col24 {0.500 0.190 0.000 srgb} bind def
/col25 {0.630 0.250 0.000 srgb} bind def
/col26 {0.750 0.380 0.000 srgb} bind def
/col27 {1.000 0.500 0.500 srgb} bind def
/col28 {1.000 0.630 0.630 srgb} bind def
/col29 {1.000 0.750 0.750 srgb} bind def
/col30 {1.000 0.880 0.880 srgb} bind def
/col31 {1.000 0.840 0.000 srgb} bind def

end
save
newpath 0 194 moveto 0 0 lineto 191 0 lineto 191 194 lineto closepath clip newpath
-7.7 201.2 translate
1 -1 scale

/cp {closepath} bind def
/ef {eofill} bind def
/gr {grestore} bind def
/gs {gsave} bind def
/sa {save} bind def
/rs {restore} bind def
/l {lineto} bind def
/m {moveto} bind def
/rm {rmoveto} bind def
/n {newpath} bind def
/s {stroke} bind def
/sh {show} bind def
/slc {setlinecap} bind def
/slj {setlinejoin} bind def
/slw {setlinewidth} bind def
/srgb {setrgbcolor} bind def
/rot {rotate} bind def
/sc {scale} bind def
/sd {setdash} bind def
/ff {findfont} bind def
/sf {setfont} bind def
/scf {scalefont} bind def
/sw {stringwidth} bind def
/tr {translate} bind def
/tnt {dup dup currentrgbcolor
  4 -2 roll dup 1 exch sub 3 -1 roll mul add
  4 -2 roll dup 1 exch sub 3 -1 roll mul add
  4 -2 roll dup 1 exch sub 3 -1 roll mul add srgb}
  bind def
/shd {dup dup currentrgbcolor 4 -2 roll mul 4 -2 roll mul
  4 -2 roll mul srgb} bind def
/$F2psBegin {$F2psDict begin /$F2psEnteredState save def} def
/$F2psEnd {$F2psEnteredState restore end} def

$F2psBegin
10 setmiterlimit
 0.06000 0.06000 sc
%
% Fig objects follow
%
/Times-Roman ff 180.00 scf sf
750 3300 m
gs 1 -1 sc (Imprecise) dup sw pop 2 div neg 0 rm  col0 sh gr
% Polyline
15.000 slw
n 150 750 m
 1350 750 l gs 0.00 setgray ef gr gs col0 s gr 
% Polyline
n 1650 150 m
 1650 1350 l gs 0.00 setgray ef gr gs col0 s gr 
% Polyline
n 1650 750 m
 2850 750 l gs 0.00 setgray ef gr gs col0 s gr 
% Polyline
n 1650 1650 m
 1650 2850 l gs 0.00 setgray ef gr gs col0 s gr 
% Polyline
n 1650 2250 m
 2850 2250 l gs 0.00 setgray ef gr gs col0 s gr 
% Polyline
n 150 1650 m
 150 2850 l gs 0.00 setgray ef gr gs col0 s gr 
% Polyline
n 150 2250 m
 1350 2250 l gs 0.00 setgray ef gr gs col0 s gr 
% Polyline
n 1665 2205 m 1792 2182 l 1942 2220 l 2100 2295 l 2257 2212 l 2392 2205 l
 2460 2280 l 2520 2295 l 2617 2197 l
 2850 2212 l gs col0 s gr 
% Polyline
n 165 2565 m 360 2490 l 487 2362 l 615 2347 l 705 2250 l 825 2212 l
 915 2130 l 1057 2085 l 1155 1980 l 1237 1972 l 1297 1920 l

 1342 1897 l gs col0 s gr 
% Polyline
n 1657 465 m 1770 637 l 1927 705 l 2002 1020 l 2107 862 l 2190 525 l
 2227 652 l 2272 555 l 2362 982 l 2475 1147 l 2512 832 l
 2557 427 l 2587 502 l 2647 277 l 2677 630 l 2775 967 l

 2850 525 l gs col0 s gr 
% Polyline
n 150 232 m 352 307 l 375 637 l 562 577 l 622 982 l 690 622 l
 780 870 l 885 622 l 945 1207 l 1035 952 l 1080 1140 l
 1140 1080 l 1192 1372 l
 1350 1185 l gs col0 s gr 
/Times-Roman ff 180.00 scf sf
3300 750 m
gs 1 -1 sc  90.0 rot (Unstable) dup sw pop 2 div neg 0 rm  col0 sh gr
/Times-Roman ff 180.00 scf sf
3300 2250 m
gs 1 -1 sc  90.0 rot (Stable) dup sw pop 2 div neg 0 rm  col0 sh gr
/Times-Roman ff 180.00 scf sf
2250 3300 m
gs 1 -1 sc (Precise) dup sw pop 2 div neg 0 rm  col0 sh gr
% Polyline
n 150 150 m
 150 1350 l gs 0.00 setgray ef gr gs col0 s gr 
$F2psEnd
rs
